…
Count number of suicides in each country:

``` r
suicides %>%
  count(`suicides/100k pop`, country) %>%
  arrange(desc(n))
```

    ## # A tibble: 21,261 x 3
    ##    `suicides/100k pop` country                          n
    ##                  <dbl> <chr>                        <int>
    ##  1                   0 Antigua and Barbuda            314
    ##  2                   0 Grenada                        280
    ##  3                   0 Saint Vincent and Grenadines   228
    ##  4                   0 Barbados                       220
    ##  5                   0 Bahamas                        211
    ##  6                   0 Saint Lucia                    209
    ##  7                   0 Belize                         197
    ##  8                   0 Malta                          182
    ##  9                   0 Seychelles                     156
    ## 10                   0 Bahrain                        146
    ## # … with 21,251 more rows
…
