Suicide Data Analysis Project
…
Suicides and Year

Group number of suicides together by year to find mean number of suicides/100k population for each year:

## # A tibble: 31 x 2
##     Year     n
##    <dbl> <dbl>
##  1  1985  11.8
##  2  1986  11.4
##  3  1987  11.6
##  4  1988  12.7
##  5  1989  12.9
##  6  1990  12.9
##  7  1991  13.4
##  8  1992  13.5
##  9  1993  13.8
## 10  1994  14.1
## #  with 21 more rows
…
Calculate summary statistics for mean number of suicides/100k population over the years:

## # A tibble: 1 x 8
##     min   max  mean   med    sd    q1    q3   iqr
##   <dbl> <dbl> <dbl> <dbl> <dbl> <dbl> <dbl> <dbl>
## 1  11.0  15.7  12.8  12.7  1.40  11.5  13.8  2.28

The highest average number of suicides was 15.7 suicides/100k population in 1995. Suicides have been declining since then. On average, there was an average of 12.7 suicides/100k population across all the years.

Group number of suicides together by year to find mean number of suicides/100K for each year in the US:

## # A tibble: 31 x 2
##     Year     n
##    <dbl> <dbl>
##  1  1985  15.4
##  2  1986  16.0
##  3  1987  16.0
##  4  1988  15.6
##  5  1989  15.2
##  6  1990  15.6
##  7  1991  15.3
##  8  1992  14.8
##  9  1993  14.9
## 10  1994  14.7
## #  with 21 more rows
…
In the visualization and data collected from the dataset, the mean number of suicides/100k population for females was 5.4 suicides while for males, was 20.2 suicides. Males had 3.7 times the number of suicides as females. This was contributed to the fact that men were more likely to die from suicides, even though women were found to attempt suicides 3-4 times more often than men. Men used more lethal means for suicide because men were more comfortable with guns, while women took pills and were less likely to die from their suicide attempts. There is also evidence that shows that men are not as inclined to seek help for mental disorders because of their masculine ideals, and their mental health declines and feelings build up with no escape, unlike women who are more likely to seek help before escalating to suicide.

Compare number of suicides/100k population for each sex per year:

## # A tibble: 62 x 3
## # Groups:   Year [?]
##     Year Sex        n
##    <dbl> <chr>  <dbl>
##  1  1985 female  5.78
##  2  1985 male   17.9 
##  3  1986 female  5.81
##  4  1986 male   17.0 
##  5  1987 female  5.73
##  6  1987 male   17.6 
##  7  1988 female  6.32
##  8  1988 male   19.1 
##  9  1989 female  6.18
## 10  1989 male   19.6 
## #  with 52 more rows
…
