…
    ## # A tibble: 101 x 2
    ##    country                n
    ##    <chr>              <dbl>
    ##  1 Lithuania           40.4
    ##  2 Sri Lanka           35.3
    ##  3 Russian Federation  34.9
    ##  4 Hungary             32.8
    ##  5 Belarus             31.1
    ##  6 Kazakhstan          30.5
    ##  7 Latvia              29.3
    ##  8 Slovenia            27.8
    ##  9 Estonia             27.3
    ## 10 Ukraine             26.6
    ## # … with 91 more rows
…
Compare number of suicides for each sex per year:

    ## # A tibble: 64 x 3
    ## # Groups:   year [?]
    ##     year sex        n
    ##    <dbl> <chr>  <int>
    ##  1  1985 female   288
    ##  2  1985 male     288
    ##  3  1986 female   288
    ##  4  1986 male     288
    ##  5  1987 female   324
    ##  6  1987 male     324
    ##  7  1988 female   294
    ##  8  1988 male     294
    ##  9  1989 female   312
    ## 10  1989 male     312
    ## # … with 54 more rows
…
